{
    "/css/banner-video-modal.css": "/css/banner-video-modal.css",
    "/css/app-import.css": "/css/app-import.css",
    "/css/app.css": "/css/app.css",
    "/css/caboodle.css": "/css/caboodle.css",
    "/js/all.js": "/js/all.js",
    "/js/app.js": "/js/app.js",
    "/js/admin.js": "/js/admin.js",
    "/js/caboodle.js": "/js/caboodle.js"
}
